…
#> fitting model kamykowski
#> fitting model lactin1
#> fitting model lactin2
#> fitting model mod_weibull
#> fitting model mod_polynomial
#> fitting model oneill
#> fitting model pawar
#> fitting model ratkowsky
#> fitting model schoolfield
#> fitting model regniere
#> generic starting values
#> fitting model thomas
#> fitting model wang
print(fitted_tpcs_aphid)
#> # A tibble: 68 × 8
#>    param_name start_vals param_est    param_se model_name model_AIC model_BIC
#>    <chr>           <dbl>     <dbl>       <dbl> <chr>          <dbl>     <dbl>
#>  1 a               0.145     0.143     0.00630 beta           -43.0     -43.3
#>  2 b              25        26.7       1.10    beta           -43.0     -43.3
#>  3 c              25       202.    13602.      beta           -43.0     -43.3
#>  4 d               2       100     12049.      beta           -43.0     -43.3
#>  5 e               2        32.6    2283.      beta           -43.0     -43.3
#>  6 rmax            0.145     0.142     0.00648 boatman        -42.4     -42.7
#>  7 tmin           15         0       104.      boatman        -42.4     -42.7
#>  8 tmax           32.5      43.7      66.3     boatman        -42.4     -42.7
#>  9 a               1.1       1.42      1.03    boatman        -42.4     -42.7
#> 10 b               0.4       2.43     19.9     boatman        -42.4     -42.7
#> # ℹ 58 more rows
#> # ℹ 1 more variable: model_fit <list>
```
…
``` r
boundaries_aphid <- therm_suit_bounds(preds_tbl = preds_boots_aphid,
                                      model_name = "lactin2",
                                      suitability_threshold = 80)
print(boundaries_aphid)
#> # A tibble: 102 × 6
#>    model_name suitability tval_left tval_right pred_suit  iter
#>    <chr>      <chr>           <dbl>      <dbl>     <dbl> <int>
#>  1 lactin2    80 %             NA         NA      NA        NA
#>  2 lactin2    80 %             NA         NA       0.188     1
#>  3 lactin2    80 %             21         37       0.115     2
#>  4 lactin2    80 %             21         36       0.112     3
#>  5 lactin2    80 %             22         36.5     0.113     4
#>  6 lactin2    80 %             21.5       36       0.115     5
#>  7 lactin2    80 %             21         35.5     0.117     6
#>  8 lactin2    80 %             21         36.5     0.115     7
#>  9 lactin2    80 %             21         36       0.115     8
#> 10 lactin2    80 %             NA         NA       0.204     9
#> # ℹ 92 more rows
```
…
