…
After running
[`fit_devmodels()`](https://ecologyr.github.io/mappestRisk/reference/fit_devmodels.md),
a `tibble` (a specific case of `data.frame`) is created containing the
most relevant statistical information of the modelled TPCs: model name,
parameter information –name, estimates, standard error, AICs and listed
model objects.To continue the package workflow, this output must be
stored as an object (here we call it `fitted_tpcs_aphid`). This `tibble`
has the following aspect:

``` r
print(fitted_tpcs_aphid)
#> # A tibble: 53 × 8
#>    model_name param_name start_vals param_est    param_se model_AIC model_BIC
#>    <chr>      <chr>           <dbl>     <dbl>       <dbl>     <dbl>     <dbl>
#>  1 beta       a               0.145     0.143     0.00630     -43.0     -43.3
#>  2 beta       b              25        26.7       1.10        -43.0     -43.3
#>  3 beta       c              25       202.    13598.          -43.0     -43.3
#>  4 beta       d               2       100     12046.          -43.0     -43.3
#>  5 beta       e               2        32.6    2282.          -43.0     -43.3
#>  6 boatman    rmax            0.145     0.142     0.00648     -42.4     -42.7
#>  7 boatman    tmin           15         0       104.          -42.4     -42.7
#>  8 boatman    tmax           32.5      43.7      66.7         -42.4     -42.7
#>  9 boatman    a               1.1       1.42      1.03        -42.4     -42.7
#> 10 boatman    b               0.4       2.44     20.0         -42.4     -42.7
#> # ℹ 43 more rows
#> # ℹ 1 more variable: model_fit <list>
```
…
